<?xml version="1.0" encoding="UTF-8" standalone="no"?>
<!-- Created with Inkscape (http://www.inkscape.org/) -->

<svg
   xmlns:dc="http://purl.org/dc/elements/1.1/"
   xmlns:cc="http://creativecommons.org/ns#"
   xmlns:rdf="http://www.w3.org/1999/02/22-rdf-syntax-ns#"
   xmlns:svg="http://www.w3.org/2000/svg"
   xmlns="http://www.w3.org/2000/svg"
   xmlns:sodipodi="http://sodipodi.sourceforge.net/DTD/sodipodi-0.dtd"
   xmlns:inkscape="http://www.inkscape.org/namespaces/inkscape"
   width="199mm"
   height="186mm"
   viewBox="0 0 705.11808 659.05493"
   id="svg2"
   version="1.1"
   inkscape:version="0.91 r13725"
   sodipodi:docname="users.svg">
  <defs
     id="defs4">
    <marker
       inkscape:stockid="Arrow1Lstart"
       orient="auto"
       refY="0.0"
       refX="0.0"
       id="Arrow1Lstart"
       style="overflow:visible"
       inkscape:isstock="true">
      <path
         id="path5312"
         d="M 0.0,0.0 L 5.0,-5.0 L -12.5,0.0 L 5.0,5.0 L 0.0,0.0 z "
         style="fill-rule:evenodd;stroke:#000000;stroke-width:1pt;stroke-opacity:1;fill:#000000;fill-opacity:1"
         transform="scale(0.8) translate(12.5,0)" />
    </marker>
    <marker
       inkscape:stockid="Arrow1Lstart"
       orient="auto"
       refY="0"
       refX="0"
       id="Arrow1Lstart-7"
       style="overflow:visible"
       inkscape:isstock="true">
      <path
         inkscape:connector-curvature="0"
         id="path5312-5"
         d="M 0,0 5,-5 -12.5,0 5,5 0,0 Z"
         style="fill:#000000;fill-opacity:1;fill-rule:evenodd;stroke:#000000;stroke-width:1pt;stroke-opacity:1"
         transform="matrix(0.8,0,0,0.8,10,0)" />
    </marker>
    <marker
       inkscape:stockid="Arrow1Lstart"
       orient="auto"
       refY="0"
       refX="0"
       id="Arrow1Lstart-2"
       style="overflow:visible"
       inkscape:isstock="true">
      <path
         inkscape:connector-curvature="0"
         id="path5312-2"
         d="M 0,0 5,-5 -12.5,0 5,5 0,0 Z"
         style="fill:#000000;fill-opacity:1;fill-rule:evenodd;stroke:#000000;stroke-width:1pt;stroke-opacity:1"
         transform="matrix(0.8,0,0,0.8,10,0)" />
    </marker>
  </defs>
  <sodipodi:namedview
     id="base"
     pagecolor="#ffffff"
     bordercolor="#666666"
     borderopacity="1.0"
     inkscape:pageopacity="0.0"
     inkscape:pageshadow="2"
     inkscape:zoom="1.3762127"
     inkscape:cx="370.72485"
     inkscape:cy="329.52756"
     inkscape:document-units="px"
     inkscape:current-layer="layer1"
     showgrid="false"
     inkscape:window-width="1863"
     inkscape:window-height="1056"
     inkscape:window-x="57"
     inkscape:window-y="24"
     inkscape:window-maximized="1" />
  <metadata
     id="metadata7">
    <rdf:RDF>
      <cc:Work
         rdf:about="">
        <dc:format>image/svg+xml</dc:format>
        <dc:type
           rdf:resource="http://purl.org/dc/dcmitype/StillImage" />
        <dc:title></dc:title>
      </cc:Work>
    </rdf:RDF>
  </metadata>
  <g
     inkscape:label="Layer 1"
     inkscape:groupmode="layer"
     id="layer1"
     transform="translate(0,-393.30733)">
    <path
       style="opacity:1;fill:none;fill-opacity:1;fill-rule:nonzero;stroke:#000000;stroke-width:3;stroke-linecap:round;stroke-linejoin:round;stroke-miterlimit:4;stroke-dasharray:none;stroke-dashoffset:0;stroke-opacity:1"
       id="path4174"
       sodipodi:type="arc"
       sodipodi:cx="327.07407"
       sodipodi:cy="664.76367"
       sodipodi:rx="59.173622"
       sodipodi:ry="32.487476"
       sodipodi:start="0"
       sodipodi:end="6.1965722"
       d="m 386.24769,664.76367 a 59.173622,32.487476 0 0 1 -57.89242,32.47986 59.173622,32.487476 0 0 1 -60.39935,-31.07338 59.173622,32.487476 0 0 1 55.27694,-33.82543 59.173622,32.487476 0 0 1 62.79301,29.60863"
       sodipodi:open="true" />
    <text
       xml:space="preserve"
       style="font-style:normal;font-weight:normal;font-size:25px;line-height:125%;font-family:Sans;text-align:start;letter-spacing:0px;word-spacing:0px;text-anchor:start;fill:#000000;fill-opacity:1;stroke:none;stroke-width:1px;stroke-linecap:butt;stroke-linejoin:miter;stroke-opacity:1"
       x="287.625"
       y="672.88556"
       id="text4176"
       sodipodi:linespacing="125%"><tspan
         sodipodi:role="line"
         id="tspan4178"
         x="287.625"
         y="672.88556">Server</tspan></text>
    <text
       xml:space="preserve"
       style="font-style:normal;font-weight:normal;font-size:25px;line-height:125%;font-family:Sans;text-align:start;letter-spacing:0px;word-spacing:0px;text-anchor:start;fill:#000000;fill-opacity:1;stroke:none;stroke-width:1px;stroke-linecap:butt;stroke-linejoin:miter;stroke-opacity:1"
       x="350.27945"
       y="620.67352"
       id="text4180"
       sodipodi:linespacing="125%"><tspan
         sodipodi:role="line"
         id="tspan4182"
         x="350.27945"
         y="620.67352">FARM</tspan></text>
    <path
       style="opacity:1;fill:none;fill-opacity:1;fill-rule:nonzero;stroke:#000000;stroke-width:3;stroke-linecap:round;stroke-linejoin:round;stroke-miterlimit:4;stroke-dasharray:none;stroke-dashoffset:0;stroke-opacity:1"
       id="path4174-3"
       sodipodi:type="arc"
       sodipodi:cx="336.15881"
       sodipodi:cy="494.20505"
       sodipodi:rx="59.173622"
       sodipodi:ry="32.487476"
       sodipodi:start="0"
       sodipodi:end="6.1965722"
       d="m 395.33244,494.20505 a 59.173622,32.487476 0 0 1 -57.89242,32.47986 59.173622,32.487476 0 0 1 -60.39935,-31.07338 59.173622,32.487476 0 0 1 55.27694,-33.82544 59.173622,32.487476 0 0 1 62.79301,29.60863"
       sodipodi:open="true" />
    <text
       xml:space="preserve"
       style="font-style:normal;font-weight:normal;font-size:25px;line-height:125%;font-family:Sans;text-align:start;letter-spacing:0px;word-spacing:0px;text-anchor:start;fill:#000000;fill-opacity:1;stroke:none;stroke-width:1px;stroke-linecap:butt;stroke-linejoin:miter;stroke-opacity:1"
       x="296.70975"
       y="502.32693"
       id="text4176-6"
       sodipodi:linespacing="125%"><tspan
         sodipodi:role="line"
         id="tspan4178-7"
         x="296.70975"
         y="502.32693">Server</tspan></text>
    <text
       xml:space="preserve"
       style="font-style:normal;font-weight:normal;font-size:25px;line-height:125%;font-family:Sans;text-align:start;letter-spacing:0px;word-spacing:0px;text-anchor:start;fill:#000000;fill-opacity:1;stroke:none;stroke-width:1px;stroke-linecap:butt;stroke-linejoin:miter;stroke-opacity:1"
       x="368.75021"
       y="451.36176"
       id="text4180-5"
       sodipodi:linespacing="125%"><tspan
         sodipodi:role="line"
         id="tspan4182-3"
         x="368.75021"
         y="451.36176">CLOUD</tspan></text>
    <g
       transform="translate(35.462717,321.73646)"
       id="g37796"
       style="stroke-width:4.00000048;stroke-miterlimit:4;stroke-dasharray:none">
      <circle
         r="12.762938"
         cy="408.414"
         cx="71.356422"
         id="path20650"
         style="opacity:1;fill:#fdffff;fill-opacity:1;fill-rule:nonzero;stroke:#000000;stroke-width:4.00000048;stroke-linecap:round;stroke-linejoin:round;stroke-miterlimit:4;stroke-dasharray:none;stroke-dashoffset:0;stroke-opacity:1" />
      <path
         sodipodi:nodetypes="cc"
         inkscape:connector-curvature="0"
         id="path20652"
         d="m 71.356424,421.17693 -0.690042,34.54231"
         style="fill:none;fill-rule:evenodd;stroke:#000000;stroke-width:4.00000048;stroke-linecap:butt;stroke-linejoin:miter;stroke-miterlimit:4;stroke-dasharray:none;stroke-opacity:1" />
      <path
         inkscape:connector-curvature="0"
         id="path20654"
         d="m 46.990816,436.26041 24.365608,-6.96161 24.365612,9.28214"
         style="fill:none;fill-rule:evenodd;stroke:#000000;stroke-width:4.00000048;stroke-linecap:butt;stroke-linejoin:miter;stroke-miterlimit:4;stroke-dasharray:none;stroke-opacity:1" />
      <path
         sodipodi:nodetypes="ccc"
         inkscape:connector-curvature="0"
         id="path20656"
         d="m 54.417722,481.291 16.259034,-25.30606 18.564276,25.52588"
         style="fill:none;fill-rule:evenodd;stroke:#000000;stroke-width:4.00000048;stroke-linecap:butt;stroke-linejoin:miter;stroke-miterlimit:4;stroke-dasharray:none;stroke-opacity:1" />
    </g>
    <g
       id="g12076"
       transform="matrix(0.00489735,0,0,-0.00479764,138.21181,803.37581)"
       style="fill:#000000;stroke:none">
      <path
         id="path12078"
         d="m 4202,11749 c -171,-22 -300,-87 -428,-214 -75,-74 -99,-106 -136,-182 -26,-50 -55,-127 -65,-170 -17,-75 -18,-257 -18,-4788 0,-4487 1,-4713 18,-4780 10,-38 38,-113 64,-165 39,-80 59,-108 137,-185 76,-76 106,-99 186,-138 183,-90 -52,-82 2440,-82 2492,0 2257,-8 2440,82 80,39 110,62 186,138 78,77 98,105 137,185 26,52 54,127 64,165 17,67 18,293 18,4785 0,4492 -1,4718 -18,4785 -10,39 -38,113 -64,165 -39,80 -59,108 -137,185 -103,103 -199,160 -333,198 l -78,22 -2175,1 c -1196,1 -2203,-2 -2238,-7 z m 2686,-701 c 18,-18 15,-94 -4,-112 -14,-14 -71,-16 -484,-16 -413,0 -470,2 -484,16 -19,18 -22,94 -4,112 17,17 959,17 976,0 z m 1852,-4648 0,-3810 -2340,0 -2340,0 0,3810 0,3810 2340,0 2340,0 0,-3810 z M 6470,2259 c 196,-31 349,-185 382,-383 37,-225 -113,-452 -337,-511 -260,-67 -520,103 -566,371 -41,239 132,483 371,523 76,12 77,12 150,0 z"
         inkscape:connector-curvature="0" />
    </g>
    <text
       xml:space="preserve"
       style="font-style:normal;font-weight:normal;font-size:25px;line-height:125%;font-family:Sans;text-align:start;letter-spacing:0px;word-spacing:0px;text-anchor:start;fill:#000000;fill-opacity:1;stroke:none;stroke-width:1px;stroke-linecap:butt;stroke-linejoin:miter;stroke-opacity:1"
       x="150.86287"
       y="735.58392"
       id="text5107"
       sodipodi:linespacing="125%"><tspan
         sodipodi:role="line"
         id="tspan5109"
         x="150.86287"
         y="735.58392">token</tspan></text>
    <text
       xml:space="preserve"
       style="font-style:normal;font-weight:normal;font-size:25px;line-height:125%;font-family:Sans;text-align:start;letter-spacing:0px;word-spacing:0px;text-anchor:start;fill:#000000;fill-opacity:1;stroke:none;stroke-width:1px;stroke-linecap:butt;stroke-linejoin:miter;stroke-opacity:1"
       x="117.08305"
       y="503.91953"
       id="text5113"
       sodipodi:linespacing="125%"><tspan
         sodipodi:role="line"
         id="tspan5115"
         x="117.08305"
         y="503.91953">user 1</tspan></text>
    <g
       id="g5121"
       transform="translate(301.42205,213.36947)">
      <rect
         y="433.93988"
         x="234.37395"
         height="30.166943"
         width="52.212017"
         id="rect5117"
         style="opacity:1;fill:none;fill-opacity:1;fill-rule:nonzero;stroke:#000000;stroke-width:3;stroke-linecap:round;stroke-linejoin:round;stroke-miterlimit:4;stroke-dasharray:none;stroke-dashoffset:0;stroke-opacity:1" />
      <rect
         transform="matrix(1,0,-0.5,0.8660254,0,0)"
         y="536.34277"
         x="502.42346"
         height="25.653673"
         width="51.874393"
         id="rect5119"
         style="opacity:1;fill:none;fill-opacity:1;fill-rule:nonzero;stroke:#000000;stroke-width:3.22370982;stroke-linecap:round;stroke-linejoin:round;stroke-miterlimit:4;stroke-dasharray:none;stroke-dashoffset:0;stroke-opacity:1" />
    </g>
    <g
       transform="translate(554.51764,265.24714)"
       id="g37796-5"
       style="stroke-width:4.00000048;stroke-miterlimit:4;stroke-dasharray:none">
      <circle
         r="12.762938"
         cy="408.414"
         cx="71.356422"
         id="path20650-6"
         style="opacity:1;fill:#fdffff;fill-opacity:1;fill-rule:nonzero;stroke:#000000;stroke-width:4.00000048;stroke-linecap:round;stroke-linejoin:round;stroke-miterlimit:4;stroke-dasharray:none;stroke-dashoffset:0;stroke-opacity:1" />
      <path
         sodipodi:nodetypes="cc"
         inkscape:connector-curvature="0"
         id="path20652-2"
         d="m 71.356424,421.17693 -0.690042,34.54231"
         style="fill:none;fill-rule:evenodd;stroke:#000000;stroke-width:4.00000048;stroke-linecap:butt;stroke-linejoin:miter;stroke-miterlimit:4;stroke-dasharray:none;stroke-opacity:1" />
      <path
         inkscape:connector-curvature="0"
         id="path20654-9"
         d="m 46.990816,436.26041 24.365608,-6.96161 24.365612,9.28214"
         style="fill:none;fill-rule:evenodd;stroke:#000000;stroke-width:4.00000048;stroke-linecap:butt;stroke-linejoin:miter;stroke-miterlimit:4;stroke-dasharray:none;stroke-opacity:1" />
      <path
         sodipodi:nodetypes="ccc"
         inkscape:connector-curvature="0"
         id="path20656-1"
         d="m 54.417722,481.291 16.259034,-25.30606 18.564276,25.52588"
         style="fill:none;fill-rule:evenodd;stroke:#000000;stroke-width:4.00000048;stroke-linecap:butt;stroke-linejoin:miter;stroke-miterlimit:4;stroke-dasharray:none;stroke-opacity:1" />
    </g>
    <g
       id="g12076-2"
       transform="matrix(0.00489735,0,0,-0.00479764,509.20595,778.6108)"
       style="fill:#000000;stroke:none">
      <path
         id="path12078-7"
         d="m 4202,11749 c -171,-22 -300,-87 -428,-214 -75,-74 -99,-106 -136,-182 -26,-50 -55,-127 -65,-170 -17,-75 -18,-257 -18,-4788 0,-4487 1,-4713 18,-4780 10,-38 38,-113 64,-165 39,-80 59,-108 137,-185 76,-76 106,-99 186,-138 183,-90 -52,-82 2440,-82 2492,0 2257,-8 2440,82 80,39 110,62 186,138 78,77 98,105 137,185 26,52 54,127 64,165 17,67 18,293 18,4785 0,4492 -1,4718 -18,4785 -10,39 -38,113 -64,165 -39,80 -59,108 -137,185 -103,103 -199,160 -333,198 l -78,22 -2175,1 c -1196,1 -2203,-2 -2238,-7 z m 2686,-701 c 18,-18 15,-94 -4,-112 -14,-14 -71,-16 -484,-16 -413,0 -470,2 -484,16 -19,18 -22,94 -4,112 17,17 959,17 976,0 z m 1852,-4648 0,-3810 -2340,0 -2340,0 0,3810 0,3810 2340,0 2340,0 0,-3810 z M 6470,2259 c 196,-31 349,-185 382,-383 37,-225 -113,-452 -337,-511 -260,-67 -520,103 -566,371 -41,239 132,483 371,523 76,12 77,12 150,0 z"
         inkscape:connector-curvature="0" />
    </g>
    <text
       xml:space="preserve"
       style="font-style:normal;font-weight:normal;font-size:25px;line-height:125%;font-family:Sans;text-align:start;letter-spacing:0px;word-spacing:0px;text-anchor:start;fill:#000000;fill-opacity:1;stroke:none;stroke-width:1px;stroke-linecap:butt;stroke-linejoin:miter;stroke-opacity:1"
       x="456.23804"
       y="636.33844"
       id="text5170"
       sodipodi:linespacing="125%"><tspan
         sodipodi:role="line"
         id="tspan5172"
         x="456.23804"
         y="636.33844">token</tspan></text>
    <text
       xml:space="preserve"
       style="font-style:normal;font-weight:normal;font-size:25px;line-height:125%;font-family:Sans;text-align:start;letter-spacing:0px;word-spacing:0px;text-anchor:start;fill:#000000;fill-opacity:1;stroke:none;stroke-width:1px;stroke-linecap:butt;stroke-linejoin:miter;stroke-opacity:1"
       x="445.34943"
       y="741.48309"
       id="text5174"
       sodipodi:linespacing="125%"><tspan
         sodipodi:role="line"
         id="tspan5176"
         x="445.34943"
         y="741.48309">token</tspan></text>
    <path
       style="fill:none;fill-rule:evenodd;stroke:#000000;stroke-width:1px;stroke-linecap:butt;stroke-linejoin:miter;stroke-opacity:1"
       d="m 200.77812,590.67987 66.56816,66.56815"
       id="path5178"
       inkscape:connector-curvature="0"
       sodipodi:nodetypes="cc" />
    <text
       xml:space="preserve"
       style="font-style:normal;font-weight:normal;font-size:25px;line-height:125%;font-family:Sans;text-align:start;letter-spacing:0px;word-spacing:0px;text-anchor:start;fill:#000000;fill-opacity:1;stroke:none;stroke-width:1px;stroke-linecap:butt;stroke-linejoin:miter;stroke-opacity:1"
       x="593.98358"
       y="638.75677"
       id="text5184"
       sodipodi:linespacing="125%"><tspan
         sodipodi:role="line"
         id="tspan5186"
         x="593.98358"
         y="638.75677">user 3</tspan></text>
    <g
       transform="translate(12.309326,102.04781)"
       id="g37796-5-0"
       style="stroke-width:4.00000048;stroke-miterlimit:4;stroke-dasharray:none">
      <circle
         r="12.762938"
         cy="408.414"
         cx="71.356422"
         id="path20650-6-9"
         style="opacity:1;fill:#fdffff;fill-opacity:1;fill-rule:nonzero;stroke:#000000;stroke-width:4.00000048;stroke-linecap:round;stroke-linejoin:round;stroke-miterlimit:4;stroke-dasharray:none;stroke-dashoffset:0;stroke-opacity:1" />
      <path
         sodipodi:nodetypes="cc"
         inkscape:connector-curvature="0"
         id="path20652-2-3"
         d="m 71.356424,421.17693 -0.690042,34.54231"
         style="fill:none;fill-rule:evenodd;stroke:#000000;stroke-width:4.00000048;stroke-linecap:butt;stroke-linejoin:miter;stroke-miterlimit:4;stroke-dasharray:none;stroke-opacity:1" />
      <path
         inkscape:connector-curvature="0"
         id="path20654-9-6"
         d="m 46.990816,436.26041 24.365608,-6.96161 24.365612,9.28214"
         style="fill:none;fill-rule:evenodd;stroke:#000000;stroke-width:4.00000048;stroke-linecap:butt;stroke-linejoin:miter;stroke-miterlimit:4;stroke-dasharray:none;stroke-opacity:1" />
      <path
         sodipodi:nodetypes="ccc"
         inkscape:connector-curvature="0"
         id="path20656-1-0"
         d="m 54.417722,481.291 16.259034,-25.30606 18.564276,25.52588"
         style="fill:none;fill-rule:evenodd;stroke:#000000;stroke-width:4.00000048;stroke-linecap:butt;stroke-linejoin:miter;stroke-miterlimit:4;stroke-dasharray:none;stroke-opacity:1" />
    </g>
    <g
       id="g5121-6"
       transform="translate(-94.949965,103.56838)">
      <rect
         y="433.93988"
         x="234.37395"
         height="30.166943"
         width="52.212017"
         id="rect5117-2"
         style="opacity:1;fill:none;fill-opacity:1;fill-rule:nonzero;stroke:#000000;stroke-width:3;stroke-linecap:round;stroke-linejoin:round;stroke-miterlimit:4;stroke-dasharray:none;stroke-dashoffset:0;stroke-opacity:1" />
      <rect
         transform="matrix(1,0,-0.5,0.8660254,0,0)"
         y="536.34277"
         x="502.42346"
         height="25.653673"
         width="51.874393"
         id="rect5119-6"
         style="opacity:1;fill:none;fill-opacity:1;fill-rule:nonzero;stroke:#000000;stroke-width:3.22370982;stroke-linecap:round;stroke-linejoin:round;stroke-miterlimit:4;stroke-dasharray:none;stroke-dashoffset:0;stroke-opacity:1" />
    </g>
    <g
       id="g5121-1"
       transform="translate(75.418086,463.04507)">
      <rect
         y="433.93988"
         x="234.37395"
         height="30.166943"
         width="52.212017"
         id="rect5117-8"
         style="opacity:1;fill:none;fill-opacity:1;fill-rule:nonzero;stroke:#000000;stroke-width:3;stroke-linecap:round;stroke-linejoin:round;stroke-miterlimit:4;stroke-dasharray:none;stroke-dashoffset:0;stroke-opacity:1" />
      <rect
         transform="matrix(1,0,-0.5,0.8660254,0,0)"
         y="536.34277"
         x="502.42346"
         height="25.653673"
         width="51.874393"
         id="rect5119-7"
         style="opacity:1;fill:none;fill-opacity:1;fill-rule:nonzero;stroke:#000000;stroke-width:3.22370982;stroke-linecap:round;stroke-linejoin:round;stroke-miterlimit:4;stroke-dasharray:none;stroke-dashoffset:0;stroke-opacity:1" />
    </g>
    <text
       xml:space="preserve"
       style="font-style:normal;font-weight:normal;font-size:25px;line-height:125%;font-family:Sans;text-align:start;letter-spacing:0px;word-spacing:0px;text-anchor:start;fill:#000000;fill-opacity:1;stroke:none;stroke-width:1px;stroke-linecap:butt;stroke-linejoin:miter;stroke-opacity:1"
       x="123.58411"
       y="625.76825"
       id="text5174-9"
       sodipodi:linespacing="125%"><tspan
         sodipodi:role="line"
         id="tspan5176-2"
         x="123.58411"
         y="625.76825">token</tspan></text>
    <text
       xml:space="preserve"
       style="font-style:normal;font-weight:normal;font-size:25px;line-height:125%;font-family:Sans;text-align:start;letter-spacing:0px;word-spacing:0px;text-anchor:start;fill:#000000;fill-opacity:1;stroke:none;stroke-width:1px;stroke-linecap:butt;stroke-linejoin:miter;stroke-opacity:1"
       x="89.820335"
       y="837.96246"
       id="text5272"
       sodipodi:linespacing="125%"><tspan
         sodipodi:role="line"
         id="tspan5274"
         x="89.820335"
         y="837.96246">user 2</tspan></text>
    <path
       style="fill:none;fill-rule:evenodd;stroke:#000000;stroke-width:1px;stroke-linecap:butt;stroke-linejoin:miter;stroke-opacity:1"
       d="m 329.61971,630.40603 3.22104,-104.14695"
       id="path5276"
       inkscape:connector-curvature="0" />
    <path
       style="fill:none;fill-rule:evenodd;stroke:#000000;stroke-width:1px;stroke-linecap:butt;stroke-linejoin:miter;stroke-opacity:1"
       d="m 387.59842,666.91114 135.16436,-4.24049"
       id="path5278"
       inkscape:connector-curvature="0"
       sodipodi:nodetypes="cc" />
    <path
       style="fill:none;fill-rule:evenodd;stroke:#000000;stroke-width:1px;stroke-linecap:butt;stroke-linejoin:miter;stroke-opacity:1"
       d="m 360.75642,690.5321 c 27.44793,48.44979 76.57374,71.60871 150.52125,65.80898"
       id="path5280"
       inkscape:connector-curvature="0"
       sodipodi:nodetypes="cc" />
    <text
       xml:space="preserve"
       style="font-style:normal;font-weight:normal;font-size:25px;line-height:125%;font-family:Sans;text-align:start;letter-spacing:0px;word-spacing:0px;text-anchor:start;fill:#000000;fill-opacity:1;stroke:none;stroke-width:1px;stroke-linecap:butt;stroke-linejoin:miter;stroke-opacity:1"
       x="372.16562"
       y="956.62024"
       id="text5282"
       sodipodi:linespacing="125%"><tspan
         sodipodi:role="line"
         id="tspan5284"
         x="372.16562"
         y="956.62024">browser?</tspan></text>
    <text
       xml:space="preserve"
       style="font-style:normal;font-weight:normal;font-size:25px;line-height:125%;font-family:Sans;text-align:start;letter-spacing:0px;word-spacing:0px;text-anchor:start;fill:#000000;fill-opacity:1;stroke:none;stroke-width:1px;stroke-linecap:butt;stroke-linejoin:miter;stroke-opacity:1"
       x="213.18507"
       y="946.15466"
       id="text5286"
       sodipodi:linespacing="125%"><tspan
         sodipodi:role="line"
         id="tspan5288"
         x="213.18507"
         y="946.15466">Local</tspan><tspan
         sodipodi:role="line"
         x="213.18507"
         y="977.40466"
         id="tspan5290">Shared</tspan></text>
    <path
       style="fill:none;fill-rule:evenodd;stroke:#000000;stroke-width:1px;stroke-linecap:butt;stroke-linejoin:miter;stroke-opacity:1"
       d="m 193.26237,767.83705 86.96807,-80.52599"
       id="path5292"
       inkscape:connector-curvature="0" />
    <path
       style="fill:none;fill-rule:evenodd;stroke:#000000;stroke-width:1px;stroke-linecap:butt;stroke-linejoin:miter;stroke-opacity:1"
       d="m 330.34634,880.10708 c -2.14736,-4.29472 -5.02135,-182.05922 -5.02135,-182.05922"
       id="path5298"
       inkscape:connector-curvature="0"
       sodipodi:nodetypes="cc" />
    <text
       xml:space="preserve"
       style="font-style:normal;font-weight:normal;font-size:25px;line-height:125%;font-family:Sans;text-align:start;letter-spacing:0px;word-spacing:0px;text-anchor:start;fill:#000000;fill-opacity:1;stroke:none;stroke-width:1px;stroke-linecap:butt;stroke-linejoin:miter;stroke-opacity:1"
       x="254.23438"
       y="841.3028"
       id="text5300"
       sodipodi:linespacing="125%"><tspan
         sodipodi:role="line"
         id="tspan5302"
         x="254.23438"
         y="841.3028">QR</tspan></text>
    <text
       xml:space="preserve"
       style="font-style:normal;font-weight:normal;font-size:25px;line-height:125%;font-family:Sans;text-align:start;letter-spacing:0px;word-spacing:0px;text-anchor:start;fill:#000000;fill-opacity:1;stroke:none;stroke-width:1px;stroke-linecap:butt;stroke-linejoin:miter;stroke-opacity:1"
       x="383.43384"
       y="843.74298"
       id="text5304"
       sodipodi:linespacing="125%"><tspan
         sodipodi:role="line"
         id="tspan5306"
         x="383.43384"
         y="843.74298">QR</tspan></text>
    <path
       style="fill:none;fill-rule:evenodd;stroke:#000000;stroke-width:1px;stroke-linecap:butt;stroke-linejoin:miter;stroke-opacity:1;marker-start:url(#Arrow1Lstart)"
       d="m 198.3705,791.50151 95.18878,100.2752"
       id="path6747"
       inkscape:connector-curvature="0"
       sodipodi:nodetypes="cc" />
    <path
       style="fill:none;fill-rule:evenodd;stroke:#000000;stroke-width:1px;stroke-linecap:butt;stroke-linejoin:miter;stroke-opacity:1;marker-start:url(#Arrow1Lstart-2)"
       d="M 513.08399,779.63665 375.02394,902.43745"
       id="path6747-8"
       inkscape:connector-curvature="0"
       sodipodi:nodetypes="cc" />
    <text
       xml:space="preserve"
       style="font-style:normal;font-weight:normal;font-size:25px;line-height:125%;font-family:Sans;text-align:start;letter-spacing:0px;word-spacing:0px;text-anchor:start;fill:#000000;fill-opacity:1;stroke:none;stroke-width:1px;stroke-linecap:butt;stroke-linejoin:miter;stroke-opacity:1"
       x="205.63683"
       y="576.41852"
       id="text8242"
       sodipodi:linespacing="125%"><tspan
         sodipodi:role="line"
         id="tspan8244"
         x="205.63683"
         y="576.41852">app</tspan></text>
    <text
       xml:space="preserve"
       style="font-style:normal;font-weight:normal;font-size:25px;line-height:125%;font-family:Sans;text-align:start;letter-spacing:0px;word-spacing:0px;text-anchor:start;fill:#000000;fill-opacity:1;stroke:none;stroke-width:1px;stroke-linecap:butt;stroke-linejoin:miter;stroke-opacity:1"
       x="466.87424"
       y="692.7204"
       id="text8242-9"
       sodipodi:linespacing="125%"><tspan
         sodipodi:role="line"
         id="tspan8244-7"
         x="466.87424"
         y="692.7204">app</tspan></text>
  </g>
</svg>
